# TTE-004
# Starting scenario: Test
ok 1 - Username_or_Email.DoSetText(["wp_admin"])
ok 2 - Password.DoSetText(["Testing123!"])
ok 3 - wp_submit.DoClick([])
ok 4 - Settings.DoMouseMove([5,5])
ok 5 - General.DoClick([])
ok 6 - Site_Title.DoSetText(["TTE Site Title"])
ok 7 - submit.DoClick([])
ok 8 - Verify that: InnerText=TTE Site Title
ok 9 - TTE_Site_Title.DoClick([])
ok 10 - Verify that: InnerText=TTE Site Title
ok 11 - Howdy__wp_admin.DoMouseMove([5,5])
ok 12 - Log_Out.DoClick([])
ok 13 - Verify that: InnerText=	You are now logged out.
# 
ok 14 - TTE-004
