Microsoft (R) Windows Script Host Version 5.812
Copyright (C) Microsoft Corporation. All rights reserved.

SeS Player Starting...
Verbose level:1
Creating a locator:Spreadsheet
Creating a locator:HTML
Creating a locator:HTML FPP
###TTE-006 (-2)
###Starting scenario: Test (-2)
Attaching to spreadsheet : true : C:\Users\Nate Custer\src\test-maintenance-evaulation\rapise\TTE-006\Main.rvl.xlsx
SetRowIndex: 0:47
StopPreamble, lastItem: // 

Playing script: Script: C:\Users\Nate Custer\src\test-maintenance-evaulation\rapise\TTE-006\Main.rvl.xlsx:RVL, 48 source rows 0 errors
Looking for object:Navigator
Connecting to Chrome
Connected to chrome:Chrome Legacy Window[Chrome_RenderWidgetHostHWND]
Accessible object: TTE Site Title < Log In[ROLE_SYSTEM_WINDOW]
Chrome active URL: http://localhost:8080/wp-login.php?loggedout=true
ChromeWindowRect: x = 0, y = 103, w = 1920, h =937
Connected to Chrome window:http://localhost:8080/wp-login.php?loggedout=true
Looking for object:Username_or_Email
************!!!!!!!!!!!!!!!!!!**************
MatchedObject:TTE Site Title < Log In(HTMLObject)[-1]
DoSetText(["wp_admin"])
###Username_or_Email.DoSetText(["wp_admin"]) (1)
Action result:true
Looking for object:Password
************!!!!!!!!!!!!!!!!!!**************
MatchedObject:TTE Site Title < Log In(HTMLObject)[-1]
DoSetText(["Testing123!"])
###Password.DoSetText(["Testing123!"]) (1)
Action result:true
Looking for object:wp_submit
************!!!!!!!!!!!!!!!!!!**************
MatchedObject:TTE Site Title < Log In(HTMLObject)[-1]
DoClick([])
ChromeWindowRect: x = 0, y = 103, w = 1920, h =937
###wp_submit.DoClick([]) (1)
Action result:true
Looking for object:Turn_comments_on_or_off
************!!!!!!!!!!!!!!!!!!**************
MatchedObject:Dashboard < TTE Site Title - WordPress(HTMLObject)[-1]
DoClick([])
ChromeWindowRect: x = 0, y = 103, w = 1920, h =937
###Turn_comments_on_or_off.DoClick([]) (1)
Action result:true
Looking for object:Allow_people_to_post_comments_on
************!!!!!!!!!!!!!!!!!!**************
MatchedObject:Discussion Settings < TTE Site Title - WordPress(HTMLObject)[-1]
DoSetText(["open"])
###Allow_people_to_post_comments_on.DoSetText(["open"]) (1)
Action result:true
Looking for object:Allow_people_to_post_comments_on
************!!!!!!!!!!!!!!!!!!**************
MatchedObject:Discussion Settings < TTE Site Title - WordPress(HTMLObject)[-1]
DoSetCheck([false])
###Allow_people_to_post_comments_on.DoSetCheck([false]) (1)
Action result:true
Looking for object:Comment_author_must_have_a_previ
************!!!!!!!!!!!!!!!!!!**************
MatchedObject:Discussion Settings < TTE Site Title - WordPress(HTMLObject)[-1]
DoSetText(["1"])
###Comment_author_must_have_a_previ.DoSetText(["1"]) (1)
Action result:true
Looking for object:Comment_author_must_have_a_previ
************!!!!!!!!!!!!!!!!!!**************
MatchedObject:Discussion Settings < TTE Site Title - WordPress(HTMLObject)[-1]
DoSetCheck([false])
###Comment_author_must_have_a_previ.DoSetCheck([false]) (1)
Action result:true
Looking for object:submit
************!!!!!!!!!!!!!!!!!!**************
MatchedObject:Discussion Settings < TTE Site Title - WordPress(HTMLObject)[-1]
DoClick([])
ChromeWindowRect: x = 0, y = 103, w = 1920, h =937
###submit.DoClick([]) (1)
Action result:true
Looking for object:_New
************!!!!!!!!!!!!!!!!!!**************
MatchedObject:Discussion Settings < TTE Site Title - WordPress(HTMLObject)[-1]
DoMouseMove([5,5])
ChromeWindowRect: x = 0, y = 103, w = 1920, h =937
###_New.DoMouseMove([5,5]) (1)
Action result:true
Looking for object:Post
************!!!!!!!!!!!!!!!!!!**************
MatchedObject:Discussion Settings < TTE Site Title - WordPress(HTMLObject)[-1]
DoClick([])
ChromeWindowRect: x = 0, y = 103, w = 1920, h =937
###Post.DoClick([]) (1)
Action result:true
Looking for object:Enter_title_here
************!!!!!!!!!!!!!!!!!!**************
MatchedObject:Add New Post < TTE Site Title - WordPress(HTMLObject)[-1]
DoSetText(["Can't Comment Here"])
###Enter_title_here.DoSetText(["Can't Comment Here"]) (1)
Action result:true
Looking for object:Text
************!!!!!!!!!!!!!!!!!!**************
MatchedObject:Add New Post < TTE Site Title - WordPress(HTMLObject)[-1]
DoClick([])
ChromeWindowRect: x = 0, y = 103, w = 1920, h =937
###Text.DoClick([]) (1)
Action result:true
Looking for object:content
************!!!!!!!!!!!!!!!!!!**************
MatchedObject:Add New Post < TTE Site Title - WordPress(HTMLObject)[-1]
DoSetText(["Don't comment on me"])
###content.DoSetText(["Don't comment on me"]) (1)
Action result:true
Looking for object:publish
************!!!!!!!!!!!!!!!!!!**************
MatchedObject:Add New Post < TTE Site Title - WordPress(HTMLObject)[-1]
DoClick([])
ChromeWindowRect: x = 0, y = 103, w = 1920, h =937
###publish.DoClick([]) (1)
Action result:true
Looking for object:View_Post
************!!!!!!!!!!!!!!!!!!**************
MatchedObject:Edit Post < TTE Site Title - WordPress(HTMLObject)[-1]
DoClick([])
ChromeWindowRect: x = 0, y = 103, w = 1920, h =937
###View_Post.DoClick([]) (1)
Action result:true
Looking for object:Navigator
************!!!!!!!!!!!!!!!!!!**************
MatchedObject:null
###Verify that: Comment Input Does Not Exist  (1)
Looking for object:Howdy__wp_admin
************!!!!!!!!!!!!!!!!!!**************
MatchedObject:Can't Comment Here - TTE Site Title(HTMLObject)[-1]
DoMouseMove([5,5])
ChromeWindowRect: x = 0, y = 103, w = 1920, h =937
###Howdy__wp_admin.DoMouseMove([5,5]) (1)
Action result:true
Looking for object:Log_Out
************!!!!!!!!!!!!!!!!!!**************
MatchedObject:Can't Comment Here - TTE Site Title(HTMLObject)[-1]
DoClick([])
ChromeWindowRect: x = 0, y = 103, w = 1920, h =937
###Log_Out.DoClick([]) (1)
Action result:true
Looking for object:You_are_now_logged_out_
************!!!!!!!!!!!!!!!!!!**************
MatchedObject:TTE Site Title < Log In(HTMLObject)[-1]
###Verify that: InnerText=	You are now logged out.
 (1)
Execution is over, bailing out.
###TTE-006 (1)
Test execution done
