# TTE-002
# Starting scenario: Test
ok 1 - Username_or_Email.DoClick([])
ok 2 - Username_or_Email.DoSetText(["wp_admin"])
ok 3 - Password.DoSetText(["Testing123!"])
ok 4 - wp_submit.DoClick([])
ok 5 - Add_an_About_page.DoClick([])
ok 6 - Enter_title_here.DoSetText(["Testing Tool Evaluation Project SUT"])
ok 7 - Visual.DoClick([])
ok 8 - HTML.DoLClick([30,30])
ok 9 - HTML.DoSendKeys(["This is regular text."])
ok 10 - HTML.DoSendKeys(["{ENTER}"])
ok 11 - BUTTON.DoLClick([5,5])
ok 12 - HTML.DoSendKeys(["This is bold text."])
ok 13 - HTML.DoSendKeys(["{ENTER}"])
ok 14 - HTML.DoSendKeys(["The TTE project aims to provide a baseline of test plans for comparison of test tools and how much work is required to maintain the tests over time. "])
ok 15 - publish.DoClick([])
ok 16 - Verify that: Text=Published
ok 17 - View_Page.DoClick([])
ok 18 - Verify that: InnerText=Testing Tool Evaluation Project SUT
ok 19 - Verify that: InnerText=This is bold text.
ok 20 - Verify that: Tag=STRONG
ok 21 - Howdy__wp_admin.DoMouseMove([30,5])
ok 22 - Log_Out.DoClick([])
ok 23 - TTE-002
